<svg xmlns="http://www.w3.org/2000/svg" width="25" height="26" viewBox="0 0 25 26">
  <path fill="#3D3F4A" d="M24.6806811,16.1241817 L22.4377301,14.8346705 C22.6641312,13.618546 22.6641312,12.3709701 22.4377301,11.1548457 L24.6806811,9.86533443 C24.9386731,9.71856079 25.0545062,9.41452968 24.9702639,9.13146623 C24.385833,7.26534425 23.390721,5.57744741 22.0902306,4.172614 C21.8901552,3.95769546 21.5637163,3.90527631 21.3109894,4.05204994 L19.0680384,5.3415612 C18.1255777,4.53430619 17.0409582,3.91051822 15.8668313,3.5016488 L15.8668313,0.927868202 C15.8668313,0.634320924 15.6614907,0.377467056 15.3719078,0.314564068 C13.4396003,-0.115273017 11.4599064,-0.0943053545 9.62237144,0.314564068 C9.33278856,0.377467056 9.12744798,0.634320924 9.12744798,0.927868202 L9.12744798,3.50689071 C7.95858618,3.92100205 6.87396668,4.54479002 5.9262409,5.34680312 L3.68855503,4.05729186 C3.43056301,3.91051822 3.10938927,3.95769546 2.90931383,4.17785592 C1.60882345,5.57744741 0.613711383,7.26534425 0.0292804847,9.13670815 C-0.0602269501,9.41977159 0.0608713441,9.7238027 0.318863362,9.87057634 L2.56181438,11.1600876 C2.33541322,12.376212 2.33541322,13.623788 2.56181438,14.8399124 L0.318863362,16.1294237 C0.0608713441,16.2761973 -0.0549618069,16.5802284 0.0292804847,16.8632919 C0.613711383,18.7294138 1.60882345,20.4173107 2.90931383,21.8221441 C3.10938927,22.0370626 3.43582815,22.0894818 3.68855503,21.9427081 L5.93150604,20.6531969 C6.87396668,21.4604519 7.95858618,22.0842399 9.13271312,22.4931093 L9.13271312,25.0721318 C9.13271312,25.3656791 9.33805371,25.6225329 9.62763658,25.6854359 C11.5599441,26.115273 13.539638,26.0943054 15.377173,25.6854359 C15.6667559,25.6225329 15.8720964,25.3656791 15.8720964,25.0721318 L15.8720964,22.4931093 C17.0409582,22.0789979 18.1255777,21.45521 19.0733035,20.6531969 L21.3162545,21.9427081 C21.5742466,22.0894818 21.8954203,22.0423045 22.0954957,21.8221441 C23.3959861,20.4225526 24.3910982,18.7346557 24.9755291,16.8632919 C25.0545062,16.5749865 24.9386731,16.2709554 24.6806811,16.1241817 Z M12.4971396,17.1882906 C10.1752115,17.1882906 8.28502506,15.3064429 8.28502506,12.9947581 C8.28502506,10.6830733 10.1752115,8.80122554 12.4971396,8.80122554 C14.8190678,8.80122554 16.7092542,10.6830733 16.7092542,12.9947581 C16.7092542,15.3064429 14.8190678,17.1882906 12.4971396,17.1882906 Z"/>
</svg>
